{
    "count": 60,
    "first": null,
    "next": "https://breathecode-test.herokuapp.com/v1/admissions/academy/cohort?limit=10&offset=10",
    "previous": null,
    "last": "https://breathecode-test.herokuapp.com/v1/admissions/academy/cohort?limit=10&offset=50",
    "results": [
        {
            "id": 158,
            "slug": "miami-xxx",
            "name": "Miami XXX",
            "never_ends": false,
            "private": false,
            "language": "en",
            "kickoff_date": "2021-12-07T01:00:00Z",
            "ending_date": "2022-04-22T00:00:00Z",
            "current_day": 0,
            "stage": "INACTIVE",
            "specialty_mode": null,
            "syllabus_version": {
                "version": 4,
                "slug": "full-stack",
                "name": "Full-Stack Software Developer",
                "syllabus": 41,
                "duration_in_hours": 320,
                "duration_in_days": 48,
                "week_hours": 9,
                "github_url": null,
                "logo": "https://storage.googleapis.com/admissions-breathecode/certificate-logo-full-stack",
                "private": false
            },
            "academy": {
                "id": 4,
                "slug": "downtown-miami",
                "name": "4Geeks Academy Miami",
                "country": {
                    "code": "us",
                    "name": "USA"
                },
                "city": {
                    "name": "Miami"
                },
                "logo_url": "https://storage.googleapis.com/admissions-breathecode/location-downtown-miami"
            }
        },
        {
            "id": 159,
            "slug": "miami-xxxi",
            "name": "Miami XXXI",
            "never_ends": false,
            "private": false,
            "language": "en",
            "kickoff_date": "2021-12-07T00:00:00Z",
            "ending_date": "2022-05-27T00:00:00Z",
            "current_day": 0,
            "stage": "INACTIVE",
            "specialty_mode": null,
            "syllabus_version": {
                "version": 4,
                "slug": "full-stack",
                "name": "Full-Stack Software Developer",
                "syllabus": 41,
                "duration_in_hours": 320,
                "duration_in_days": 48,
                "week_hours": 9,
                "github_url": null,
                "logo": "https://storage.googleapis.com/admissions-breathecode/certificate-logo-full-stack",
                "private": false
            },
            "academy": {
                "id": 4,
                "slug": "downtown-miami",
                "name": "4Geeks Academy Miami",
                "country": {
                    "code": "us",
                    "name": "USA"
                },
                "city": {
                    "name": "Miami"
                },
                "logo_url": "https://storage.googleapis.com/admissions-breathecode/location-downtown-miami"
            }
        },
        {
            "id": 157,
            "slug": "miami-xxix",
            "name": "Miami XXIX",
            "never_ends": false,
            "private": false,
            "language": "en",
            "kickoff_date": "2021-10-06T00:00:00Z",
            "ending_date": "2022-02-18T00:00:00Z",
            "current_day": 0,
            "stage": "INACTIVE",
            "specialty_mode": null,
            "syllabus_version": {
                "version": 4,
                "slug": "full-stack",
                "name": "Full-Stack Software Developer",
                "syllabus": 41,
                "duration_in_hours": 320,
                "duration_in_days": 48,
                "week_hours": 9,
                "github_url": null,
                "logo": "https://storage.googleapis.com/admissions-breathecode/certificate-logo-full-stack",
                "private": false
            },
            "academy": {
                "id": 4,
                "slug": "downtown-miami",
                "name": "4Geeks Academy Miami",
                "country": {
                    "code": "us",
                    "name": "USA"
                },
                "city": {
                    "name": "Miami"
                },
                "logo_url": "https://storage.googleapis.com/admissions-breathecode/location-downtown-miami"
            }
        },
        {
            "id": 259,
            "slug": "defence-against-the-dark-arts",
            "name": "Defence Against the Dark Arts",
            "never_ends": true,
            "private": false,
            "language": "en",
            "kickoff_date": "2021-09-23T05:23:50.936000Z",
            "ending_date": null,
            "current_day": 0,
            "stage": "INACTIVE",
            "specialty_mode": {
                "id": 4,
                "slug": "blabla",
                "name": "blabla",
                "syllabus": 36
            },
            "syllabus_version": {
                "version": 1,
                "slug": "full-stack-ft",
                "name": "Full-Stack Software Developer FT",
                "syllabus": 36,
                "duration_in_hours": 320,
                "duration_in_days": 45,
                "week_hours": 40,
                "github_url": null,
                "logo": "https://storage.googleapis.com/admissions-breathecode/certificate-logo-full-stack-ft",
                "private": false
            },
            "academy": {
                "id": 4,
                "slug": "downtown-miami",
                "name": "4Geeks Academy Miami",
                "country": {
                    "code": "us",
                    "name": "USA"
                },
                "city": {
                    "name": "Miami"
                },
                "logo_url": "https://storage.googleapis.com/admissions-breathecode/location-downtown-miami"
            }
        },
        {
            "id": 258,
            "slug": "luke-i-am-your-father",
            "name": "Luke, I am your father",
            "never_ends": true,
            "private": false,
            "language": "en",
            "kickoff_date": "2021-09-23T02:21:27.690000Z",
            "ending_date": null,
            "current_day": 0,
            "stage": "INACTIVE",
            "specialty_mode": null,
            "syllabus_version": {
                "version": 1,
                "slug": "front-end-development",
                "name": "Front End Development",
                "syllabus": 33,
                "duration_in_hours": 108,
                "duration_in_days": 36,
                "week_hours": 9,
                "github_url": null,
                "logo": null,
                "private": false
            },
            "academy": {
                "id": 4,
                "slug": "downtown-miami",
                "name": "4Geeks Academy Miami",
                "country": {
                    "code": "us",
                    "name": "USA"
                },
                "city": {
                    "name": "Miami"
                },
                "logo_url": "https://storage.googleapis.com/admissions-breathecode/location-downtown-miami"
            }
        },
        {
            "id": 225,
            "slug": "miami-xxxii",
            "name": "Miami XXXII",
            "never_ends": false,
            "private": false,
            "language": "en",
            "kickoff_date": "2021-09-23T02:12:10.700000Z",
            "ending_date": "2021-09-25T02:12:00Z",
            "current_day": 0,
            "stage": "INACTIVE",
            "specialty_mode": null,
            "syllabus_version": {
                "version": 1,
                "slug": "software-engineering",
                "name": "Software Engineering",
                "syllabus": 37,
                "duration_in_hours": 350,
                "duration_in_days": 35,
                "week_hours": 9,
                "github_url": null,
                "logo": null,
                "private": false
            },
            "academy": {
                "id": 4,
                "slug": "downtown-miami",
                "name": "4Geeks Academy Miami",
                "country": {
                    "code": "us",
                    "name": "USA"
                },
                "city": {
                    "name": "Miami"
                },
                "logo_url": "https://storage.googleapis.com/admissions-breathecode/location-downtown-miami"
            }
        },
        {
            "id": 224,
            "slug": "test-i",
            "name": "Test1",
            "never_ends": true,
            "private": false,
            "language": "es",
            "kickoff_date": "2021-09-22T08:31:11.982000Z",
            "ending_date": null,
            "current_day": 0,
            "stage": "INACTIVE",
            "specialty_mode": null,
            "syllabus_version": {
                "version": 2,
                "slug": "full-stack-ft",
                "name": "Full-Stack Software Developer FT",
                "syllabus": 36,
                "duration_in_hours": 320,
                "duration_in_days": 45,
                "week_hours": 40,
                "github_url": null,
                "logo": "https://storage.googleapis.com/admissions-breathecode/certificate-logo-full-stack-ft",
                "private": false
            },
            "academy": {
                "id": 4,
                "slug": "downtown-miami",
                "name": "4Geeks Academy Miami",
                "country": {
                    "code": "us",
                    "name": "USA"
                },
                "city": {
                    "name": "Miami"
                },
                "logo_url": "https://storage.googleapis.com/admissions-breathecode/location-downtown-miami"
            }
        },
        {
            "id": 223,
            "slug": "the-defence-against-the-dark-arts",
            "name": "The Defence against the Dark Arts",
            "never_ends": true,
            "private": false,
            "language": "es",
            "kickoff_date": "2021-09-21T04:43:38Z",
            "ending_date": null,
            "current_day": 0,
            "stage": "DELETED",
            "specialty_mode": {
                "id": 3,
                "slug": "pt-tue-thu-frid-6-9",
                "name": "PT Tues-Thru-Frid from 6-9",
                "syllabus": 41
            },
            "syllabus_version": {
                "version": 3,
                "slug": "full-stack",
                "name": "Full-Stack Software Developer",
                "syllabus": 41,
                "duration_in_hours": 320,
                "duration_in_days": 48,
                "week_hours": 9,
                "github_url": null,
                "logo": "https://storage.googleapis.com/admissions-breathecode/certificate-logo-full-stack",
                "private": false
            },
            "academy": {
                "id": 4,
                "slug": "downtown-miami",
                "name": "4Geeks Academy Miami",
                "country": {
                    "code": "us",
                    "name": "USA"
                },
                "city": {
                    "name": "Miami"
                },
                "logo_url": "https://storage.googleapis.com/admissions-breathecode/location-downtown-miami"
            }
        },
        {
            "id": 222,
            "slug": "delete-me-cohort",
            "name": "delete me cohort",
            "never_ends": false,
            "private": false,
            "language": "es",
            "kickoff_date": "2021-09-14T00:26:00Z",
            "ending_date": "2021-09-30T08:55:00Z",
            "current_day": 30,
            "stage": "DELETED",
            "specialty_mode": {
                "id": 2,
                "slug": "full-time",
                "name": "FT (Every day, 9 to 6)",
                "syllabus": 41
            },
            "syllabus_version": {
                "version": 1,
                "slug": "front-end-development",
                "name": "Front End Development",
                "syllabus": 33,
                "duration_in_hours": 108,
                "duration_in_days": 36,
                "week_hours": 9,
                "github_url": null,
                "logo": null,
                "private": false
            },
            "academy": {
                "id": 4,
                "slug": "downtown-miami",
                "name": "4Geeks Academy Miami",
                "country": {
                    "code": "us",
                    "name": "USA"
                },
                "city": {
                    "name": "Miami"
                },
                "logo_url": "https://storage.googleapis.com/admissions-breathecode/location-downtown-miami"
            }
        },
        {
            "id": 156,
            "slug": "miami-xxviii",
            "name": "Miami XXVIII",
            "never_ends": false,
            "private": false,
            "language": "en",
            "kickoff_date": "2021-09-07T00:00:00Z",
            "ending_date": "2021-12-10T00:00:00Z",
            "current_day": 1,
            "stage": "ACTIVE",
            "specialty_mode": null,
            "syllabus_version": {
                "version": 4,
                "slug": "full-stack",
                "name": "Full-Stack Software Developer",
                "syllabus": 41,
                "duration_in_hours": 320,
                "duration_in_days": 48,
                "week_hours": 9,
                "github_url": null,
                "logo": "https://storage.googleapis.com/admissions-breathecode/certificate-logo-full-stack",
                "private": false
            },
            "academy": {
                "id": 4,
                "slug": "downtown-miami",
                "name": "4Geeks Academy Miami",
                "country": {
                    "code": "us",
                    "name": "USA"
                },
                "city": {
                    "name": "Miami"
                },
                "logo_url": "https://storage.googleapis.com/admissions-breathecode/location-downtown-miami"
            }
        }
    ]
}
